[kommdesign.de/index.html]
[backblue.gif]
[fade.gif]
[index.html]
[kommdesign.de/stil1.css]
[kommdesign.de/gifs/button_fakt2.gif]
[kommdesign.de/gifs/button_tex2.gif]
[kommdesign.de/gifs/02_galerie3.gif]
[kommdesign.de/gifs/03_fakten3.gif]
[kommdesign.de/gifs/04_texte3.gif]
[kommdesign.de/gifs/05_links3.gif]
[kommdesign.de/gifs/06_angebot3.gif]
[kommdesign.de/gifs/07_profil3.gif]
[kommdesign.de/gifs/08_buecher3.gif]
[kommdesign.de/gifs/s_top2.gif]
[kommdesign.de/gifs/01gal2.gif]
[kommdesign.de/gifs/02fak2.gif]
[kommdesign.de/gifs/03tex2.gif]
[kommdesign.de/gifs/04lin2.gif]
[kommdesign.de/gifs/07bue2.gif]
[kommdesign.de/gifs/06pro2.gif]
[kommdesign.de/gifs/05ang2.gif]
[kommdesign.de/gifs/suche2.gif]
[kommdesign.de/gifs/mail2.gif]
[kommdesign.de/gifs/head_index.gif]
[kommdesign.de/gifs/spacer.gif]
[kommdesign.de/gifs/01_start3.gif]
[kommdesign.de/galerie/index.html]
[kommdesign.de/gifs/02_galerie1.gif]
[kommdesign.de/fakten/index.html]
[kommdesign.de/gifs/03_fakten1.gif]
[kommdesign.de/texte/index.html]
[kommdesign.de/gifs/04_texte1.gif]
[kommdesign.de/links/index.html]
[kommdesign.de/gifs/05_links1.gif]
[kommdesign.de/buecher/index.html]
[kommdesign.de/gifs/08_buecher1.gif]
[kommdesign.de/profil/index.html]
[kommdesign.de/gifs/07_profil1.gif]
[kommdesign.de/angebot/index.html]
[kommdesign.de/gifs/06_angebot1.gif]
[kommdesign.de/suche/suche.html]
[kommdesign.de/gifs/suche.gif]
[kommdesign.de/gifs/mail.gif]
[kommdesign.de/gifs/ausruf_gr.gif]
[kommdesign.de/info.html]
[kommdesign.de/gifs/s_top1.gif]
[kommdesign.de/gifs/b2_gal1.gif]
[kommdesign.de/gifs/01gal1.gif]
[kommdesign.de/gifs/02fak1.gif]
[kommdesign.de/gifs/03tex1.gif]
[kommdesign.de/gifs/04lin1.gif]
[kommdesign.de/gifs/07bue1.gif]
[kommdesign.de/gifs/06pro1.gif]
[kommdesign.de/gifs/05ang1.gif]
[kommdesign.de/index.html]
[kommdesign.de/stil1.css]
[kommdesign.de/gifs/suche_e2b.gif]
[kommdesign.de/gifs/mail_e2b.gif]
[kommdesign.de/gifs/head_e2.gif]
[kommdesign.de/gifs/suche_e2a.gif]
[kommdesign.de/gifs/mail_e2a.gif]
[kommdesign.de/gifs/e2_qrot.gif]
[kommdesign.de/gifs/01_start1.gif]
[kommdesign.de/gifs/paragraph_rot.gif]
[kommdesign.de/galerie/faqs_galerie.html]
[kommdesign.de/gifs/down_rot.gif]
[kommdesign.de/gifs/mark_rot.gif]
[kommdesign.de/galerie/kommunik/priorit.html]
[kommdesign.de/galerie/kommunik/bestview.html]
[kommdesign.de/galerie/kommunik/zukunft.html]
[kommdesign.de/galerie/kommunik/kosovo.html]
[kommdesign.de/galerie/kommunik/zwang.html]
[kommdesign.de/galerie/kommunik/luege.html]
[kommdesign.de/galerie/kommunik/deus_ex_machina.html]
[kommdesign.de/galerie/kommunik/spam.html]
[kommdesign.de/galerie/kommunik/koevolution.html]
[kommdesign.de/galerie/kommunik/wording.html]
[kommdesign.de/gifs/top_rot.gif]
[kommdesign.de/galerie/links/keinhome.html]
[kommdesign.de/galerie/links/schein.html]
[kommdesign.de/galerie/links/kannsein.html]
[kommdesign.de/galerie/links/wechsel.html]
[kommdesign.de/galerie/links/aehnlich.html]
[kommdesign.de/galerie/links/mehrdeut.html]
[kommdesign.de/galerie/links/icons.html]
[kommdesign.de/galerie/links/zuviel.html]
[kommdesign.de/galerie/links/klappmesser.html]
[kommdesign.de/galerie/links/navigator.html]
[kommdesign.de/galerie/links/winzig.html]
[kommdesign.de/galerie/formular/platz.html]
[kommdesign.de/galerie/formular/suchen.html]
[kommdesign.de/galerie/formular/suchmaschinentest.html]
[kommdesign.de/galerie/formular/anzeige.html]
[kommdesign.de/galerie/formular/kontakt.html]
[kommdesign.de/galerie/formular/iloveyou.html]
[kommdesign.de/gifs/mark_blau.gif]
[kommdesign.de/texte/erstkontakt.html]
[kommdesign.de/galerie/empfang/werbung.html]
[kommdesign.de/galerie/empfang/profi.html]
[kommdesign.de/galerie/empfang/firewall.html]
[kommdesign.de/galerie/empfang/kampffuehrung.html]
[kommdesign.de/galerie/empfang/rechtsabteilung.html]
[kommdesign.de/galerie/inhalte/nichtda.html]
[kommdesign.de/galerie/inhalte/plugout.html]
[kommdesign.de/galerie/inhalte/blabla.html]
[kommdesign.de/galerie/inhalte/gewinnspiel.html]
[kommdesign.de/galerie/inhalte/ticker.html]
[kommdesign.de/galerie/inhalte/eis.html]
[kommdesign.de/galerie/ecommerce/arcor.html]
[kommdesign.de/galerie/ecommerce/nachttisch.html]
[kommdesign.de/galerie/ecommerce/genion.html]
[kommdesign.de/galerie/ecommerce/elchtest.html]
[kommdesign.de/galerie/ecommerce/abschreck.html]
[kommdesign.de/galerie/ecommerce/sony.html]
[kommdesign.de/galerie/datum.js]
[kommdesign.de/galerie/index.html]
[kommdesign.de/gifs/forum_e2b.gif]
[kommdesign.de/gifs/e2_qviolett.gif]
[kommdesign.de/gifs/mark_lila.gif]
[kommdesign.de/fakten/seite1.html]
[kommdesign.de/gifs/top_lila.gif]
[kommdesign.de/fakten/seite2.html]
[kommdesign.de/fakten/seite3.html]
[kommdesign.de/fakten/seite4.html]
[kommdesign.de/fakten/seite5.html]
[kommdesign.de/fakten/datum.js]
[kommdesign.de/fakten/index.html]
[kommdesign.de/gifs/e2_qblau.gif]
[kommdesign.de/gifs/down_blau.gif]
[kommdesign.de/texte/animation.html]
[kommdesign.de/texte/gestaltpsychologie1.html]
[kommdesign.de/texte/gestaltpsychologie2.html]
[kommdesign.de/texte/gestaltpsychologie3.html]
[kommdesign.de/gifs/top_blau.gif]
[kommdesign.de/texte/aufmerk1.html]
[kommdesign.de/texte/aufmerk2.html]
[kommdesign.de/texte/aufmerk3.html]
[kommdesign.de/texte/aufmerk4.html]
[kommdesign.de/texte/aufmerk5.html]
[kommdesign.de/texte/aufmerk6.html]
[kommdesign.de/texte/gedaechtnisspanne.html]
[kommdesign.de/texte/verarbeitungstiefe.html]
[kommdesign.de/texte/kommunikation1.html]
[kommdesign.de/texte/kommunikation2.html]
[kommdesign.de/texte/kommunikation3.html]
[kommdesign.de/texte/kunden.html]
[kommdesign.de/texte/phrasen.html]
[kommdesign.de/texte/typologie.html]
[kommdesign.de/texte/din.html]
[kommdesign.de/texte/link_design1.html]
[kommdesign.de/texte/link_design2.html]
[kommdesign.de/texte/metaphern.html]
[kommdesign.de/texte/scrollen.html]
[kommdesign.de/texte/motivation.html]
[kommdesign.de/texte/handeln.html]
[kommdesign.de/texte/flow.html]
[kommdesign.de/texte/markt.html]
[kommdesign.de/texte/nutzen.html]
[kommdesign.de/texte/infotain.html]
[kommdesign.de/texte/komfort.html]
[kommdesign.de/texte/verpackung.html]
[kommdesign.de/texte/tests.html]
[kommdesign.de/texte/gebote.html]
[kommdesign.de/texte/datum.js]
[kommdesign.de/texte/index.html]
[kommdesign.de/gifs/e2_qhblau.gif]
[kommdesign.de/gifs/down_hblau.gif]
[kommdesign.de/gifs/mark_hblau.gif]
[kommdesign.de/links/interaktives.html]
[kommdesign.de/links/usability.html]
[kommdesign.de/links/eyetracking.html]
[kommdesign.de/links/lesetipps.html]
[kommdesign.de/links/navigation.html]
[kommdesign.de/links/schlecht.html]
[kommdesign.de/links/schreiben.html]
[kommdesign.de/links/suchmaschinen.html]
[kommdesign.de/links/umfragen.html]
[kommdesign.de/links/institut.html]
[kommdesign.de/links/banner.html]
[kommdesign.de/gifs/top_hblau.gif]
[kommdesign.de/links/datum.js]
[kommdesign.de/links/index.html]
[kommdesign.de/gifs/e2_qgruen.gif]
[kommdesign.de/gifs/paragraph_gruen.gif]
[kommdesign.de/buecher/hinweis.html]
[kommdesign.de/gifs/mark_gruen.gif]
[kommdesign.de/buecher/missing_links.html]
[kommdesign.de/buecher/bilder/missing_links_thumb.gif]
[kommdesign.de/buecher/cdoelker.html]
[kommdesign.de/buecher/bilder/doelker_thumb.jpg]
[kommdesign.de/buecher/hoffman.html]
[kommdesign.de/buecher/bilder/hoffman_thumb.jpg]
[kommdesign.de/buecher/frutiger.html]
[kommdesign.de/buecher/bilder/frutiger_thumb.gif]
[kommdesign.de/buecher/vgoetz.html]
[kommdesign.de/buecher/bilder/vgoetz_thumb.gif]
[kommdesign.de/buecher/thissen.html]
[kommdesign.de/buecher/bilder/thissen_thumb.gif]
[kommdesign.de/buecher/galitz.html]
[kommdesign.de/buecher/bilder/galitz_thumb.gif]
[kommdesign.de/buecher/turtschi.html]
[kommdesign.de/buecher/bilder/turtschi_thumb.gif]
[kommdesign.de/buecher/norman.html]
[kommdesign.de/buecher/bilder/norman_thumb.gif]
[kommdesign.de/buecher/fogg.html]
[kommdesign.de/buecher/bilder/fogg_thumb.jpg]
[kommdesign.de/buecher/hoermann.html]
[kommdesign.de/buecher/bilder/hoermann_thumb.gif]
[kommdesign.de/buecher/schneider.html]
[kommdesign.de/buecher/bilder/schneider_thumb.gif]
[kommdesign.de/buecher/doerner.html]
[kommdesign.de/buecher/bilder/doerner_thumb.gif]
[kommdesign.de/buecher/demarco.html]
[kommdesign.de/buecher/bilder/demarco_thumb.jpg]
[kommdesign.de/gifs/top_gruen.gif]
[kommdesign.de/buecher/datum.js]
[kommdesign.de/buecher/index.html]
[kommdesign.de/gifs/e2_qgelb.gif]
[kommdesign.de/profil/ich.jpg]
[kommdesign.de/profil/screenshot_digimed.jpg]
[kommdesign.de/gifs/link_gelb.gif]
[kommdesign.de/profil/rothe.jpg]
[kommdesign.de/profil/arakanga.gif]
[kommdesign.de/gifs/top_gelb.gif]
[kommdesign.de/profil/index.html]
[kommdesign.de/gifs/e2_qorange.gif]
[kommdesign.de/gifs/down_orange.gif]
[kommdesign.de/gifs/top_orange.gif]
[kommdesign.de/angebot/datum.js]
[kommdesign.de/angebot/index.html]
[kommdesign.de/suche/suche.css]
[kommdesign.de/suche/head_suche.html]
[kommdesign.de/suche/suchergebnis.html]
[kommdesign.de/suche/suche.html]
[kommdesign.de/suche/sitemap_index.html]
[kommdesign.de/info.html]
[kommdesign.de/gifs/schliessen_rot.gif]
[kommdesign.de/galerie/faqs_galerie.html]
[kommdesign.de/gifs/head_e3.gif]
[kommdesign.de/gifs/02_galerie4.gif]
[kommdesign.de/gifs/naechster_rot.gif]
[kommdesign.de/galerie/kommunik/bilder/opel.gif]
[kommdesign.de/galerie/kommunik/datum.js]
[kommdesign.de/galerie/kommunik/priorit.html]
[kommdesign.de/gifs/voriger_rot.gif]
[kommdesign.de/galerie/kommunik/bilder/alhassan.gif]
[kommdesign.de/galerie/kommunik/bestview.html]
[kommdesign.de/galerie/kommunik/bilder/ceme_l.gif]
[kommdesign.de/galerie/kommunik/bilder/ceme_r.gif]
[kommdesign.de/galerie/kommunik/zukunft.html]
[kommdesign.de/galerie/kommunik/bilder/zdf.jpg]
[kommdesign.de/galerie/kommunik/bilder/zdf2.jpg]
[kommdesign.de/galerie/kommunik/kosovo.html]
[kommdesign.de/galerie/kommunik/bilder/rpc1.gif]
[kommdesign.de/galerie/kommunik/zwang.html]
[kommdesign.de/galerie/kommunik/bilder/ikea_navigation.gif]
[kommdesign.de/galerie/kommunik/bilder/ikea_knut.gif]
[kommdesign.de/galerie/kommunik/bilder/ikea_menue.gif]
[kommdesign.de/galerie/kommunik/bilder/ikea_auswahl.gif]
[kommdesign.de/galerie/kommunik/bilder/ikea_planung.gif]
[kommdesign.de/galerie/kommunik/bilder/ikea_stand.gif]
[kommdesign.de/galerie/kommunik/luege.html]
[kommdesign.de/galerie/kommunik/bilder/netscape_warnung.gif]
[kommdesign.de/galerie/kommunik/bilder/netscape_warnung2.gif]
[kommdesign.de/galerie/kommunik/bilder/avitos1.gif]
[kommdesign.de/galerie/kommunik/bilder/avitos2.gif]
[kommdesign.de/galerie/kommunik/bilder/avitos3.gif]
[kommdesign.de/galerie/kommunik/bilder/avitos4.gif]
[kommdesign.de/galerie/kommunik/deus_ex_machina.html]
[kommdesign.de/galerie/kommunik/bilder/spam.gif]
[kommdesign.de/galerie/kommunik/bilder/spam_million_adresses.gif]
[kommdesign.de/galerie/kommunik/bilder/spam_jasmina.gif]
[kommdesign.de/galerie/kommunik/bilder/spam_beschwerde.gif]
[kommdesign.de/galerie/kommunik/bilder/spam_sparkasse.gif]
[kommdesign.de/galerie/kommunik/bilder/spam_buchhaltung.gif]
[kommdesign.de/galerie/kommunik/bilder/spam2.gif]
[kommdesign.de/galerie/kommunik/bilder/spam_ekems.gif]
[kommdesign.de/galerie/kommunik/bilder/spam_polizei.gif]
[kommdesign.de/galerie/kommunik/spam.html]
[kommdesign.de/galerie/kommunik/geklickt.html]
[kommdesign.de/galerie/kommunik/bilder/banner_hier_klicken.gif]
[kommdesign.de/galerie/kommunik/bilder/banner_bild.gif]
[kommdesign.de/galerie/kommunik/bilder/banner_fontz.gif]
[kommdesign.de/galerie/kommunik/bilder/banner_lycos.gif]
[kommdesign.de/galerie/kommunik/bilder/banner_aol_umfrage.gif]
[kommdesign.de/galerie/kommunik/bilder/banner_bol.gif]
[kommdesign.de/galerie/kommunik/bilder/banner_premium.gif]
[kommdesign.de/galerie/kommunik/bilder/banner_handy.gif]
[kommdesign.de/galerie/kommunik/bilder/banner_sticky.gif]
[kommdesign.de/galerie/kommunik/bilder/banner_dreifach.gif]
[kommdesign.de/galerie/kommunik/koevolution.html]
[kommdesign.de/galerie/kommunik/bilder/db_start.gif]
[kommdesign.de/galerie/kommunik/bilder/db_trade_risk.gif]
[kommdesign.de/galerie/kommunik/bilder/db_public_wealth.gif]
[kommdesign.de/galerie/kommunik/wording.html]
[kommdesign.de/galerie/links/bilder/w3btop.gif]
[kommdesign.de/galerie/links/loesung1.html]
[kommdesign.de/galerie/links/keinhome.html]
[kommdesign.de/galerie/links/datum.js]
[kommdesign.de/galerie/links/bilder/keinlink.gif]
[kommdesign.de/galerie/links/bilder/stadtplan.gif]
[kommdesign.de/galerie/links/bilder/mann.gif]
[kommdesign.de/galerie/links/schein.html]
[kommdesign.de/galerie/links/bilder/ford1.gif]
[kommdesign.de/galerie/links/bilder/ford2.gif]
[kommdesign.de/galerie/links/bilder/janein.gif]
[kommdesign.de/galerie/links/bilder/telekom.gif]
[kommdesign.de/galerie/links/kannsein.html]
[kommdesign.de/galerie/links/bilder/cosmed3.gif]
[kommdesign.de/galerie/links/bilder/cosmed4.gif]
[kommdesign.de/galerie/links/bilder/cosmed1.gif]
[kommdesign.de/galerie/links/bilder/cosmed2.gif]
[kommdesign.de/galerie/links/bilder/ard1.gif]
[kommdesign.de/galerie/links/bilder/ard2.gif]
[kommdesign.de/galerie/links/bilder/ard3.gif]
[kommdesign.de/galerie/links/wechsel.html]
[kommdesign.de/galerie/links/bilder/fdp.gif]
[kommdesign.de/galerie/links/bilder/fordmenue.gif]
[kommdesign.de/galerie/links/aehnlich.html]
[kommdesign.de/galerie/links/bilder/spielraum.gif]
[kommdesign.de/galerie/links/bilder/spielraum2.gif]
[kommdesign.de/galerie/links/bilder/gwa.gif]
[kommdesign.de/galerie/links/mehrdeut.html]
[kommdesign.de/galerie/links/bilder/whoiswho1.gif]
[kommdesign.de/galerie/links/bilder/whoiswho2.gif]
[kommdesign.de/galerie/links/bilder/camedien1.gif]
[kommdesign.de/galerie/links/bilder/camedien2.gif]
[kommdesign.de/galerie/links/icons.html]
[kommdesign.de/galerie/links/bilder/mirabilis_gesamt.gif]
[kommdesign.de/galerie/links/bilder/metallforum.gif]
[kommdesign.de/galerie/links/zuviel.html]
[kommdesign.de/galerie/links/bilder/messer.gif]
[kommdesign.de/galerie/links/bilder/basf_url.gif]
[kommdesign.de/galerie/links/bilder/basf_klapp_zu.gif]
[kommdesign.de/galerie/links/bilder/basf_klapp_auf.gif]
[kommdesign.de/galerie/links/bilder/argo_home.gif]
[kommdesign.de/galerie/links/bilder/argo2.gif]
[kommdesign.de/galerie/links/bilder/argo4.gif]
[kommdesign.de/galerie/links/klappmesser.html]
[kommdesign.de/galerie/links/bilder/virtual_design1.gif]
[kommdesign.de/galerie/links/bilder/virtual_design_browser.gif]
[kommdesign.de/galerie/links/bilder/virtual_design_home.gif]
[kommdesign.de/galerie/links/bilder/virtual_design_beschreibung.gif]
[kommdesign.de/galerie/links/bilder/virtual_design_navigator.gif]
[kommdesign.de/galerie/links/bilder/virtual_design_publications.gif]
[kommdesign.de/galerie/links/bilder/virtual_design_nix.gif]
[kommdesign.de/galerie/links/bilder/virtual_design_manual.gif]
[kommdesign.de/galerie/links/bilder/virtual_design_choose.gif]
[kommdesign.de/galerie/links/bilder/virtual_design_leer.gif]
[kommdesign.de/galerie/links/bilder/virtual_design_navigator2.gif]
[kommdesign.de/galerie/links/bilder/virtual_design_award.gif]
[kommdesign.de/galerie/links/bilder/virtual_design_award2.gif]
[kommdesign.de/galerie/links/navigator.html]
[kommdesign.de/galerie/links/bilder/bundestag_klein.gif]
[kommdesign.de/galerie/links/bilder/focus.gif]
[kommdesign.de/galerie/links/bilder/disclaimer.gif]
[kommdesign.de/galerie/links/bilder/spd_klein.gif]
[kommdesign.de/galerie/links/bilder/more_info.gif]
[kommdesign.de/galerie/links/bilder/green.gif]
[kommdesign.de/galerie/links/bilder/fractales.gif]
[kommdesign.de/galerie/links/bilder/asv_medien.gif]
[kommdesign.de/galerie/links/bilder/asv_umwelt.gif]
[kommdesign.de/galerie/links/bilder/stern_1_von_0.gif]
[kommdesign.de/galerie/links/bilder/burda_de_news.gif]
[kommdesign.de/galerie/links/bilder/computerwoche.gif]
[kommdesign.de/galerie/links/bilder/rui_camilo_de_schrift.gif]
[kommdesign.de/galerie/links/winzig.html]
[kommdesign.de/galerie/formular/bilder/bahn.gif]
[kommdesign.de/galerie/formular/datum.js]
[kommdesign.de/galerie/formular/platz.html]
[kommdesign.de/galerie/formular/bilder/suche2.gif]
[kommdesign.de/galerie/formular/suchen.html]
[kommdesign.de/galerie/formular/bilder/yahoo_in.gif]
[kommdesign.de/galerie/formular/bilder/yahoo_out.gif]
[kommdesign.de/galerie/formular/bilder/altavista_in.gif]
[kommdesign.de/galerie/formular/bilder/altavista_out.gif]
[kommdesign.de/galerie/formular/bilder/lycos_in.gif]
[kommdesign.de/galerie/formular/bilder/lycos_out.gif]
[kommdesign.de/galerie/formular/suchmaschinentest.html]
[kommdesign.de/galerie/formular/bilder/zeit.gif]
[kommdesign.de/galerie/formular/bilder/zeitneu.gif]
[kommdesign.de/galerie/formular/anzeige.html]
[kommdesign.de/galerie/formular/bilder/sap1.gif]
[kommdesign.de/galerie/formular/bilder/sap-form.gif]
[kommdesign.de/galerie/formular/bilder/sap-suchen.gif]
[kommdesign.de/galerie/formular/bilder/sap-submit.gif]
[kommdesign.de/galerie/formular/bilder/kein-vorname.gif]
[kommdesign.de/galerie/formular/bilder/keine-strasse.gif]
[kommdesign.de/galerie/formular/bilder/email-falsch.gif]
[kommdesign.de/galerie/formular/kontakt.html]
[kommdesign.de/galerie/formular/bilder/outlook_warnung.gif]
[kommdesign.de/galerie/formular/bilder/outlook_oeffnen.gif]
[kommdesign.de/galerie/formular/bilder/outlook_text.gif]
[kommdesign.de/galerie/formular/bilder/Outlook_mail_meldung.gif]
[kommdesign.de/galerie/formular/iloveyou.html]
[kommdesign.de/gifs/04_texte4.gif]
[kommdesign.de/gifs/voriger_blau.gif]
[kommdesign.de/gifs/naechster_blau.gif]
[kommdesign.de/texte/erstkontakt.html]
[kommdesign.de/galerie/empfang/bilder/dmmv.gif]
[kommdesign.de/galerie/empfang/bilder/puretec.gif]
[kommdesign.de/galerie/empfang/bilder/puretec2.gif]
[kommdesign.de/galerie/empfang/datum.js]
[kommdesign.de/galerie/empfang/werbung.html]
[kommdesign.de/galerie/empfang/bilder/hoechst_leer0.gif]
[kommdesign.de/galerie/empfang/bilder/hoechst_leer1.gif]
[kommdesign.de/galerie/empfang/bilder/hoechst_applet_leiste.gif]
[kommdesign.de/galerie/empfang/bilder/hoechst_pharmtrak.gif]
[kommdesign.de/galerie/empfang/bilder/hoechst_applettPT.gif]
[kommdesign.de/galerie/empfang/bilder/hoechst_leiste_error.gif]
[kommdesign.de/galerie/empfang/bilder/hoechst_home.gif]
[kommdesign.de/galerie/empfang/bilder/hoechst_lobpreis.gif]
[kommdesign.de/galerie/empfang/bilder/hoechst_awards.gif]
[kommdesign.de/galerie/empfang/profi.html]
[kommdesign.de/galerie/empfang/bilder/nytimes.gif]
[kommdesign.de/galerie/empfang/firewall.html]
[kommdesign.de/galerie/empfang/bilder/debis_klein.gif]
[kommdesign.de/galerie/empfang/bilder/debis_lippen.gif]
[kommdesign.de/galerie/empfang/bilder/debis_uebergang.gif]
[kommdesign.de/galerie/empfang/bilder/debis_gesichter.gif]
[kommdesign.de/galerie/empfang/bilder/debis_text.gif]
[kommdesign.de/galerie/empfang/bilder/debis_dialog.gif]
[kommdesign.de/galerie/empfang/bilder/debis_dialogtext.gif]
[kommdesign.de/galerie/empfang/bilder/debis_vielklick.gif]
[kommdesign.de/galerie/empfang/kampffuehrung.html]
[kommdesign.de/galerie/empfang/bilder/coke_splash.gif]
[kommdesign.de/galerie/empfang/bilder/coke_impressum_klein2.gif]
[kommdesign.de/galerie/empfang/rechtsabteilung.html]
[kommdesign.de/galerie/inhalte/bilder/knowledge_start.gif]
[kommdesign.de/galerie/inhalte/bilder/knowledge_fokus.gif]
[kommdesign.de/galerie/inhalte/bilder/knowledge_publikationen.gif]
[kommdesign.de/galerie/inhalte/bilder/knowledge_forschung_ergebnis.gif]
[kommdesign.de/galerie/inhalte/bilder/knowledge_shopping.gif]
[kommdesign.de/galerie/inhalte/bilder/knowledge_zigarren.gif]
[kommdesign.de/galerie/inhalte/datum.js]
[kommdesign.de/galerie/inhalte/nichtda.html]
[kommdesign.de/galerie/inhalte/bilder/iduna0.gif]
[kommdesign.de/galerie/inhalte/bilder/status.gif]
[kommdesign.de/galerie/inhalte/bilder/iduna1.gif]
[kommdesign.de/galerie/inhalte/bilder/iduna02.gif]
[kommdesign.de/galerie/inhalte/bilder/iduna03.gif]
[kommdesign.de/galerie/inhalte/bilder/iduna04.gif]
[kommdesign.de/galerie/inhalte/bilder/iduna05.gif]
[kommdesign.de/galerie/inhalte/bilder/iduna06.gif]
[kommdesign.de/galerie/inhalte/plugout.html]
[kommdesign.de/gifs/klick_rot.gif]
[kommdesign.de/gifs/link_rot.gif]
[kommdesign.de/galerie/inhalte/blabla.html]
[kommdesign.de/galerie/inhalte/bilder/elche1.gif]
[kommdesign.de/galerie/inhalte/bilder/elch2.gif]
[kommdesign.de/galerie/inhalte/bilder/elch3.gif]
[kommdesign.de/galerie/inhalte/bilder/elch4.gif]
[kommdesign.de/galerie/inhalte/bilder/elch5.gif]
[kommdesign.de/galerie/inhalte/bilder/elch8.gif]
[kommdesign.de/galerie/inhalte/bilder/elch9.gif]
[kommdesign.de/galerie/inhalte/gewinnspiel.html]
[kommdesign.de/galerie/inhalte/bilder/ticker_1.gif]
[kommdesign.de/galerie/inhalte/bilder/ticker_2.gif]
[kommdesign.de/galerie/inhalte/bilder/ticker_basf.gif]
[kommdesign.de/galerie/inhalte/bilder/ticker_lintec_2.gif]
[kommdesign.de/galerie/inhalte/bilder/ticker_man2.gif]
[kommdesign.de/galerie/inhalte/bilder/ticker_henkel.gif]
[kommdesign.de/galerie/inhalte/bilder/ticker6.gif]
[kommdesign.de/galerie/inhalte/bilder/ticker_commerzbank.gif]
[kommdesign.de/galerie/inhalte/bilder/ticker_t_d1.gif]
[kommdesign.de/galerie/inhalte/bilder/ticker_merck.gif]
[kommdesign.de/galerie/inhalte/bilder/ticker_heyde.gif]
[kommdesign.de/galerie/inhalte/bilder/ticker_man.gif]
[kommdesign.de/galerie/inhalte/bilder/ticker_burda.gif]
[kommdesign.de/galerie/inhalte/bilder/ticker_bunte_2.gif]
[kommdesign.de/galerie/inhalte/bilder/ticker_3.gif]
[kommdesign.de/galerie/inhalte/bilder/ticker_bunte_1.gif]
[kommdesign.de/galerie/inhalte/bilder/ticker_7.gif]
[kommdesign.de/galerie/inhalte/bilder/ticker_leer.gif]
[kommdesign.de/galerie/inhalte/ticker.html]
[kommdesign.de/galerie/inhalte/bilder/schoeller_motto2.gif]
[kommdesign.de/galerie/inhalte/bilder/schoeller.jpg]
[kommdesign.de/galerie/inhalte/bilder/schoeller_navigatronic1.gif]
[kommdesign.de/galerie/inhalte/bilder/schoeller_navigatronic2.gif]
[kommdesign.de/galerie/inhalte/bilder/schoeller_start_txt.jpg]
[kommdesign.de/galerie/inhalte/bilder/schoeller_panna_cotta.jpg]
[kommdesign.de/galerie/inhalte/bilder/schoeller_mouseover.gif]
[kommdesign.de/galerie/inhalte/bilder/schoeller_auswahl.gif]
[kommdesign.de/galerie/inhalte/bilder/schoeller_caramelita.gif]
[kommdesign.de/galerie/inhalte/bilder/schoeller_vanille.gif]
[kommdesign.de/galerie/inhalte/bilder/schoeller_baccio.gif]
[kommdesign.de/galerie/inhalte/bilder/schoeller_lecker.gif]
[kommdesign.de/galerie/inhalte/bilder/schoeller_motto1.gif]
[kommdesign.de/galerie/inhalte/eis.html]
[kommdesign.de/galerie/ecommerce/bilder/arcor_start.gif]
[kommdesign.de/galerie/ecommerce/bilder/arcor_menue.gif]
[kommdesign.de/galerie/ecommerce/bilder/arcor_menue2.gif]
[kommdesign.de/galerie/ecommerce/bilder/arcor1.gif]
[kommdesign.de/galerie/ecommerce/bilder/arcor_city_locator.gif]
[kommdesign.de/galerie/ecommerce/datum.js]
[kommdesign.de/galerie/ecommerce/arcor.html]
[kommdesign.de/galerie/ecommerce/bilder/grauweiss.gif]
[kommdesign.de/galerie/ecommerce/bilder/browsermessage.gif]
[kommdesign.de/galerie/ecommerce/bilder/fertigstellen.gif]
[kommdesign.de/galerie/ecommerce/bilder/proxy.gif]
[kommdesign.de/galerie/ecommerce/nachttisch.html]
[kommdesign.de/galerie/ecommerce/bilder/augen.jpg]
[kommdesign.de/galerie/ecommerce/bilder/genion_home.gif]
[kommdesign.de/galerie/ecommerce/bilder/genion_comic.gif]
[kommdesign.de/galerie/ecommerce/bilder/genion2.gif]
[kommdesign.de/galerie/ecommerce/bilder/genion_check.gif]
[kommdesign.de/galerie/ecommerce/bilder/genion_ausgefuellt.gif]
[kommdesign.de/galerie/ecommerce/bilder/genion_ergebnis.gif]
[kommdesign.de/galerie/ecommerce/bilder/ergebnis_oben.gif]
[kommdesign.de/galerie/ecommerce/bilder/genion_erklaerung.gif]
[kommdesign.de/galerie/ecommerce/genion.html]
[kommdesign.de/galerie/ecommerce/bilder/dell1.gif]
[kommdesign.de/galerie/ecommerce/bilder/dell2.gif]
[kommdesign.de/galerie/ecommerce/elchtest.html]
[kommdesign.de/galerie/ecommerce/bilder/choin.gif]
[kommdesign.de/galerie/ecommerce/abschreck.html]
[kommdesign.de/gifs/voriger_rot2.gif]
[kommdesign.de/galerie/ecommerce/bilder/sony_1.gif]
[kommdesign.de/galerie/ecommerce/bilder/sony_2.gif]
[kommdesign.de/galerie/ecommerce/bilder/sony_3.gif]
[kommdesign.de/galerie/ecommerce/bilder/sony_4.gif]
[kommdesign.de/galerie/ecommerce/sony.html]
[kommdesign.de/gifs/03_fakten4.gif]
[kommdesign.de/gifs/naechster_lila.gif]
[kommdesign.de/gifs/link_lila.gif]
[kommdesign.de/fakten/seite1.html]
[kommdesign.de/gifs/voriger_lila.gif]
[kommdesign.de/fakten/dusche.html]
[kommdesign.de/fakten/seite2.html]
[kommdesign.de/fakten/seite3.html]
[kommdesign.de/fakten/seite4.html]
[kommdesign.de/gifs/voriger2_lila.gif]
[kommdesign.de/gifs/ausruf_lila.gif]
[kommdesign.de/gifs/mark_grau.gif]
[kommdesign.de/letter/formulare.htm]
[kommdesign.de/fakten/seite5.html]
[kommdesign.de/texte/bilder/vis_feld.gif]
[kommdesign.de/gifs/link_blau.gif]
[kommdesign.de/texte/animation.html]
[kommdesign.de/texte/bilder/gestalt_naehe.gif]
[kommdesign.de/texte/bilder/gestalt_comundo.gif]
[kommdesign.de/texte/bilder/gestalt_comundo_neu.gif]
[kommdesign.de/texte/bilder/gestalt_freecall.gif]
[kommdesign.de/texte/bilder/gestalt_aehnlichkeit.gif]
[kommdesign.de/texte/bilder/gestalt_amazon.gif]
[kommdesign.de/texte/bilder/gestalt_uni.gif]
[kommdesign.de/texte/bilder/gestalt_uni_neu.gif]
[kommdesign.de/texte/gestaltpsychologie1.html]
[kommdesign.de/texte/bilder/gestalt_geschlossenheit.gif]
[kommdesign.de/texte/bilder/gestalt_konturen.gif]
[kommdesign.de/texte/bilder/gestalt_netscape.gif]
[kommdesign.de/texte/bilder/gestalt_dreamweaver.gif]
[kommdesign.de/texte/bilder/gestalt_wetter_neu.gif]
[kommdesign.de/texte/bilder/gestalt_wetter_rahmen.gif]
[kommdesign.de/texte/bilder/gestalt_focus_vor.gif]
[kommdesign.de/texte/bilder/gestalt_focus_nach.gif]
[kommdesign.de/texte/bilder/gestalt_fortsetzung.gif]
[kommdesign.de/texte/bilder/gestalt_shopping2.gif]
[kommdesign.de/texte/bilder/gestalt_shopping1.gif]
[kommdesign.de/texte/bilder/gestalt_tenovis.gif]
[kommdesign.de/texte/gestaltpsychologie2.html]
[kommdesign.de/texte/bilder/gestalt_einfachheit.gif]
[kommdesign.de/texte/bilder/gestalt_einfachheit2.gif]
[kommdesign.de/texte/bilder/gestalt_einfachheit3.gif]
[kommdesign.de/texte/bilder/gestalt_necker.gif]
[kommdesign.de/texte/bilder/gestalt_treppe.gif]
[kommdesign.de/texte/bilder/gestalt_necker2.gif]
[kommdesign.de/texte/bilder/gestalt_koblenz.jpg]
[kommdesign.de/texte/bilder/gestalt_t-online.gif]
[kommdesign.de/texte/bilder/gestalt_t-online_schema.gif]
[kommdesign.de/texte/bilder/gestalt_bahnganz.gif]
[kommdesign.de/texte/bilder/gestalt_bahn_schema.gif]
[kommdesign.de/gifs/klick_blau.gif]
[kommdesign.de/gifs/link_hblau.gif]
[kommdesign.de/texte/gestaltpsychologie3.html]
[kommdesign.de/texte/aufmerk1.html]
[kommdesign.de/texte/bilder/filtermodell.gif]
[kommdesign.de/texte/bilder/neumodell.gif]
[kommdesign.de/texte/aufmerk2.html]
[kommdesign.de/texte/stroop.html]
[kommdesign.de/texte/aufmerk3.html]
[kommdesign.de/texte/bilder/aufmerk_kontrast.gif]
[kommdesign.de/texte/bilder/aufmerk_groesse.gif]
[kommdesign.de/texte/bilder/aufmerk_komplex.gif]
[kommdesign.de/texte/bilder/aufmerk_kontur.gif]
[kommdesign.de/texte/bilder/aufmerk_farbe_monochrom.gif]
[kommdesign.de/texte/bilder/aufmerk_reinheit.gif]
[kommdesign.de/texte/bilder/aufmerk_saettigung.gif]
[kommdesign.de/texte/bilder/aufmerk_bunt.gif]
[kommdesign.de/texte/bilder/aufmerk_warmkalt.gif]
[kommdesign.de/texte/bilder/lotse_sw.gif]
[kommdesign.de/texte/bilder/lotse_farb.gif]
[kommdesign.de/texte/bilder/lotse_farb_neu.gif]
[kommdesign.de/texte/bilder/addition_anfang.gif]
[kommdesign.de/texte/bilder/addition_farbton.gif]
[kommdesign.de/texte/bilder/addition_saettigung.gif]
[kommdesign.de/texte/bilder/addition_groesse.gif]
[kommdesign.de/gifs/dot_blau.gif]
[kommdesign.de/texte/bilder/ausnahme_dunkel.gif]
[kommdesign.de/texte/bilder/ausnahme_hell.gif]
[kommdesign.de/texte/bilder/kaktus.gif]
[kommdesign.de/texte/bilder/milka.gif]
[kommdesign.de/texte/bilder/tuerme.gif]
[kommdesign.de/texte/bilder/elefant.gif]
[kommdesign.de/texte/doit_here_now.html]
[kommdesign.de/texte/bilder/click.gif]
[kommdesign.de/texte/bilder/cool.gif]
[kommdesign.de/texte/bilder/augen.gif]
[kommdesign.de/texte/bilder/mona.gif]
[kommdesign.de/texte/bilder/rot.gif]
[kommdesign.de/texte/bilder/gelbschwarz.gif]
[kommdesign.de/texte/bilder/kindchen.gif]
[kommdesign.de/texte/bilder/sex.gif]
[kommdesign.de/texte/aufmerk4.html]
[kommdesign.de/texte/bilder/netscape_1.gif]
[kommdesign.de/texte/bilder/netscape_2.gif]
[kommdesign.de/texte/bilder/netscape_pfeile.gif]
[kommdesign.de/texte/bilder/netscape_hinzufuegen_loeschen.gif]
[kommdesign.de/texte/bilder/netscape_sprachen.gif]
[kommdesign.de/texte/bilder/netscape_sprachen2.gif]
[kommdesign.de/texte/bilder/scriptsearch.gif]
[kommdesign.de/texte/bilder/scriptsearch2.gif]
[kommdesign.de/texte/bilder/scriptsearch_neu.gif]
[kommdesign.de/texte/bilder/post_neu0.gif]
[kommdesign.de/texte/bilder/post_neu1.gif]
[kommdesign.de/texte/bilder/menue_focus.gif]
[kommdesign.de/texte/bilder/menue_focus2.gif]
[kommdesign.de/texte/bilder/menue_focus3.gif]
[kommdesign.de/texte/bilder/comdirekt.gif]
[kommdesign.de/texte/bilder/comdirekt2.gif]
[kommdesign.de/texte/aufmerk5.html]
[kommdesign.de/texte/bilder/eyetrackingartikel1_klein.gif]
[kommdesign.de/texte/bilder/eyetrackingartikel1_klein_2.gif]
[kommdesign.de/texte/bilder/hotwired_layout_klein.gif]
[kommdesign.de/texte/bilder/layout_mit_hintergrundbild_0.gif]
[kommdesign.de/texte/bilder/layout_mit_hintergrundbild_1.gif]
[kommdesign.de/texte/bilder/skript_iud.gif]
[kommdesign.de/texte/bilder/educorner.gif]
[kommdesign.de/texte/aufmerk6.html]
[kommdesign.de/texte/gedaechtnisspanne.html]
[kommdesign.de/texte/bilder/verarbeitungstiefe1.gif]
[kommdesign.de/texte/bilder/vrearbeitungstiefe2.gif]
[kommdesign.de/texte/bilder/verarbeitungstiefe3.gif]
[kommdesign.de/texte/verarbeitungstiefe.html]
[kommdesign.de/texte/bilder/kommunikation.gif]
[kommdesign.de/texte/kommunikation1.html]
[kommdesign.de/texte/kommunikation2.html]
[kommdesign.de/texte/kommunikation3.html]
[kommdesign.de/texte/kunden.html]
[kommdesign.de/gifs/markrot.gif]
[kommdesign.de/gifs/test2_blau.gif]
[kommdesign.de/texte/phrasen.html]
[kommdesign.de/texte/typologie.html]
[kommdesign.de/texte/din.html]
[kommdesign.de/texte/bilder/focus.gif]
[kommdesign.de/texte/bilder/FAG.gif]
[kommdesign.de/texte/bilder/mytoys1.gif]
[kommdesign.de/texte/bilder/mann.gif]
[kommdesign.de/texte/bilder/mannesmann.gif]
[kommdesign.de/texte/bilder/zdnet.gif]
[kommdesign.de/texte/link_design1.html]
[kommdesign.de/texte/bilder/freecall_neu.gif]
[kommdesign.de/texte/bilder/t-d1.gif]
[kommdesign.de/texte/bilder/Bild.gif]
[kommdesign.de/texte/bilder/t-d1_menue.gif]
[kommdesign.de/texte/bilder/FAG2.gif]
[kommdesign.de/texte/bilder/FAG3.gif]
[kommdesign.de/texte/bilder/ergo_online.gif]
[kommdesign.de/texte/bilder/t-d1_2.gif]
[kommdesign.de/texte/bilder/deutsche-bahn.gif]
[kommdesign.de/texte/link_design2.html]
[kommdesign.de/texte/bilder/autos.gif]
[kommdesign.de/texte/bilder/als400.gif]
[kommdesign.de/texte/bilder/powerplayer.gif]
[kommdesign.de/texte/bilder/metapher_schema.gif]
[kommdesign.de/texte/metaphern.html]
[kommdesign.de/texte/scrollen.html]
[kommdesign.de/texte/motivation.html]
[kommdesign.de/gifs/markblau.gif]
[kommdesign.de/texte/handeln.html]
[kommdesign.de/texte/bilder/tabflow.gif]
[kommdesign.de/texte/flow.html]
[kommdesign.de/texte/markt.html]
[kommdesign.de/texte/nutzen.html]
[kommdesign.de/texte/infotain.html]
[kommdesign.de/texte/komfort.html]
[kommdesign.de/texte/verpackung.html]
[kommdesign.de/texte/tests.html]
[kommdesign.de/gifs/voriger_blau2.gif]
[kommdesign.de/texte/gebote.html]
[kommdesign.de/gifs/05_links4.gif]
[kommdesign.de/gifs/naechster_hblau.gif]
[kommdesign.de/links/bilder/wayback.gif]
[kommdesign.de/links/bilder/spamnet.gif]
[kommdesign.de/links/bilder/iwv.gif]
[kommdesign.de/links/bilder/sercomm.gif]
[kommdesign.de/links/bilder/metacolor.gif]
[kommdesign.de/links/bilder/colorbrewer.gif]
[kommdesign.de/links/bilder/popularity.gif]
[kommdesign.de/links/bilder/acronymfinder.gif]
[kommdesign.de/links/bilder/vischeck.gif]
[kommdesign.de/links/bilder/sloganizer.gif]
[kommdesign.de/links/bilder/colormix.gif]
[kommdesign.de/links/bilder/bingooo.gif]
[kommdesign.de/links/bilder/phrasen.gif]
[kommdesign.de/links/bilder/babelfisch.gif]
[kommdesign.de/links/bilder/educorner.gif]
[kommdesign.de/links/interaktives.html]
[kommdesign.de/gifs/voriger_hblau.gif]
[kommdesign.de/gifs/klick_hblau.gif]
[kommdesign.de/phpBB/index.php]
[kommdesign.de/links/usability.html]
[kommdesign.de/links/eyetracking.html]
[kommdesign.de/links/lesetipps.html]
[kommdesign.de/links/navigation.html]
[kommdesign.de/links/schlecht.html]
[kommdesign.de/links/schreiben.html]
[kommdesign.de/links/suchmaschinen.html]
[kommdesign.de/links/umfragen.html]
[kommdesign.de/links/institut.html]
[kommdesign.de/gifs/voriger2_hblau.gif]
[kommdesign.de/links/banner.html]
[kommdesign.de/gifs/schliessen_gruen.gif]
[kommdesign.de/buecher/hinweis.html]
[kommdesign.de/gifs/08_buecher4.gif]
[kommdesign.de/gifs/naechster_gruen.gif]
[kommdesign.de/buecher/bilder/missing_links.gif]
[kommdesign.de/gifs/down_gruen.gif]
[kommdesign.de/buecher/inhalt.pdf]
[kommdesign.de/gifs/pdficon_gruen.gif]
[kommdesign.de/buecher/inhalt.zip]
[kommdesign.de/gifs/zip_gruen.gif]
[kommdesign.de/buecher/leseprobe.pdf]
[kommdesign.de/buecher/leseprobe.zip]
[kommdesign.de/buecher/bilder/missing_links1.jpg]
[kommdesign.de/buecher/bilder/missing_links2.jpg]
[kommdesign.de/buecher/bilder/hanser_logo.gif]
[kommdesign.de/buecher/bilder/amzon.gif]
[kommdesign.de/buecher/missing_links.html]
[kommdesign.de/gifs/voriger_gruen.gif]
[kommdesign.de/buecher/bilder/doelker_cover.jpg]
[kommdesign.de/buecher/bilder/doelker2.jpg]
[kommdesign.de/buecher/bilder/doelker1.jpg]
[kommdesign.de/buecher/bilder/klett.gif]
[kommdesign.de/buecher/cdoelker.html]
[kommdesign.de/buecher/bilder/hoffman_cover.jpg]
[kommdesign.de/buecher/bilder/hoffman1.gif]
[kommdesign.de/buecher/bilder/hoffman2.gif]
[kommdesign.de/buecher/bilder/dtv.gif]
[kommdesign.de/gifs/klick_gruen.gif]
[kommdesign.de/buecher/hoffman.html]
[kommdesign.de/buecher/bilder/frutiger_cover.gif]
[kommdesign.de/buecher/bilder/frutiger1.jpg]
[kommdesign.de/buecher/bilder/frutiger2.jpg]
[kommdesign.de/buecher/frutiger.html]
[kommdesign.de/buecher/bilder/vgoetz.jpg]
[kommdesign.de/gifs/link_gruen.gif]
[kommdesign.de/buecher/bilder/goetz1.jpg]
[kommdesign.de/buecher/bilder/goetz2.jpg]
[kommdesign.de/buecher/bilder/aldus_grau.gif]
[kommdesign.de/buecher/vgoetz.html]
[kommdesign.de/buecher/bilder/thissen_cover.jpg]
[kommdesign.de/buecher/bilder/thissen1.gif]
[kommdesign.de/buecher/bilder/thissen2.gif]
[kommdesign.de/buecher/bilder/springer_logo.gif]
[kommdesign.de/buecher/thissen.html]
[kommdesign.de/buecher/bilder/galitz_cover.gif]
[kommdesign.de/buecher/bilder/galitz1.jpg]
[kommdesign.de/buecher/bilder/galitz2.jpg]
[kommdesign.de/buecher/bilder/wiley.gif]
[kommdesign.de/buecher/galitz.html]
[kommdesign.de/buecher/bilder/turtschi_cover.gif]
[kommdesign.de/buecher/bilder/turtschi1.gif]
[kommdesign.de/buecher/bilder/turtschi2.gif]
[kommdesign.de/buecher/bilder/niggli.gif]
[kommdesign.de/buecher/turtschi.html]
[kommdesign.de/buecher/bilder/norman_cover.jpg]
[kommdesign.de/buecher/bilder/norman1.gif]
[kommdesign.de/buecher/bilder/norman2.gif]
[kommdesign.de/buecher/norman.html]
[kommdesign.de/buecher/bilder/fogg_cover.jpg]
[kommdesign.de/buecher/bilder/fogg1.gif]
[kommdesign.de/buecher/bilder/fogg2.gif]
[kommdesign.de/buecher/fogg.html]
[kommdesign.de/buecher/bilder/hoermann_cover.gif]
[kommdesign.de/buecher/bilder/hoermann2.gif]
[kommdesign.de/buecher/bilder/hoermann1.gif]
[kommdesign.de/buecher/bilder/surhkamp.gif]
[kommdesign.de/buecher/hoermann.html]
[kommdesign.de/buecher/bilder/schneider.gif]
[kommdesign.de/buecher/bilder/schneider1.gif]
[kommdesign.de/buecher/bilder/schneider2.gif]
[kommdesign.de/buecher/schneider.html]
[kommdesign.de/buecher/bilder/doerner_cover.gif]
[kommdesign.de/buecher/bilder/doerner1.gif]
[kommdesign.de/buecher/bilder/doerner2.gif]
[kommdesign.de/buecher/bilder/rowohlt.gif]
[kommdesign.de/buecher/doerner.html]
[kommdesign.de/gifs/voriger2_gruen.gif]
[kommdesign.de/buecher/bilder/demarco_cover.jpg]
[kommdesign.de/buecher/bilder/demarco1.gif]
[kommdesign.de/buecher/bilder/demarco2.gif]
[kommdesign.de/buecher/demarco.html]
[kommdesign.de/suche/suche.css]
[kommdesign.de/suche/index2.gif]
[kommdesign.de/suche/suche.gif]
[kommdesign.de/suche/sitemap.gif]
[kommdesign.de/suche/suche1.html]
[kommdesign.de/suche/index.gif]
[kommdesign.de/suche/head_suche.html]
[www.google.com/logos/Logo_40wht.gif]
[kommdesign.de/suche/los.gif]
[kommdesign.de/suche/suchergebnis.html]
[kommdesign.de/gifs/stabgrau.gif]
[kommdesign.de/kalender.html]
[kommdesign.de/gifs/start_lila.gif]
[kommdesign.de/gifs/start_blau.gif]
[kommdesign.de/gifs/start_tuerk.gif]
[kommdesign.de/gifs/start_gruen.gif]
[kommdesign.de/gifs/start_gelb.gif]
[kommdesign.de/gifs/start_orange.gif]
[kommdesign.de/suche/sitemap_index.html]
[kommdesign.de/galerie/kommunik/geklickt.html]
[kommdesign.de/galerie/links/bilder/w3btop2.gif]
[kommdesign.de/galerie/links/loesung1.html]
[kommdesign.de/fakten/dusche.html]
[kommdesign.de/letter/formulare.html]
[kommdesign.de/texte/bilder/stroop_zurueck.gif]
[kommdesign.de/texte/bilder/stroop_weiter.gif]
[kommdesign.de/texte/stroop.html]
[kommdesign.de/gifs/dot_blau.html]
[kommdesign.de/texte/doit_here_now.html]
[kommdesign.de/gifs/markrot.html]
[kommdesign.de/gifs/markblau.html]
[kommdesign.de/phpBB/index.html]
[kommdesign.de/suche/head_suche1.html]
[kommdesign.de/suche/suche1.html]
[kommdesign.de/suche/sitemap_index2.html]
[kommdesign.de/gifs/forum_e2a.gif]
[kommdesign.de/gifs/quad_grau.gif]
[kommdesign.de/gifs/grau.gif]
[kommdesign.de/gifs/start_rot.gif]
[kommdesign.de/gifs/mark_orange.gif]
[kommdesign.de/kalender.html]
[kommdesign.de/suche/sitemap2.gif]
[kommdesign.de/suche/sitemap3.gif]
[kommdesign.de/suche/index3.gif]
[kommdesign.de/suche/head_suche1.html]
[kommdesign.de/suche/Ged%E4chtnis]
[kommdesign.de/links/lesetipp.htm]
[kommdesign.de/galerie/ARCHIV/telekom.htm]
[kommdesign.de/texte/verkaufen.html]
[kommdesign.de/suche/sitemap_index2.html]
[kommdesign.de/suche/Ged%E4chtnis .html]
[kommdesign.de/links/lesetipp.html]
[kommdesign.de/index-2.html]
[kommdesign.de/index-2.html]
[kommdesign.de/galerie/ARCHIV/telekom.html]
[kommdesign.de/gifs/stabgrau_quer.gif]
[kommdesign.de/gifs/quer_blau.gif]
[kommdesign.de/gifs/txt_kommdesign.gif]
[kommdesign.de/gifs/hoch_texte.gif]
[kommdesign.de/gifs/dot1.gif]
[kommdesign.de/suchen.htm]
[kommdesign.de/gifs/suchen.gif]
[kommdesign.de/texte/verkaufen.html]
[kommdesign.de/gifs/stabgrau_quer.html]
[kommdesign.de/gifs/quer_blau.html]
[kommdesign.de/gifs/txt_kommdesign.html]
[kommdesign.de/gifs/hoch_texte.html]
[kommdesign.de/gifs/dot1.html]
[kommdesign.de/suchen.html]
[kommdesign.de/gifs/suchen.html]
